# BEGIN PLOT
DrawOnly=/afs/cern.ch/work/s/sthenkel/work/MCGenerators/RIVET/RivetAnalyses/routines/MC_TTbar_TruthSel/Output_test.yoda/MC_TTbar_TruthSel/elec_pT
Title= leading elec pt
LogY=1
RatioPlotYMax=1.27
NormalizeToSum=1
LegendXPos=0.57
XLabel=electron pt [GeV]
XMax=350
YLabel=bin sum.
XMin=0
RatioPlotErrorBandColor=yellow
LegendYPos=0.93
Legend=1
RatioPlotYMin=0.73
# END PLOT

# BEGIN HISTOGRAM /afs/cern.ch/work/s/sthenkel/work/MCGenerators/RIVET/RivetAnalyses/routines/MC_TTbar_TruthSel/Output_test.yoda/MC_TTbar_TruthSel/elec_pT
LineColor={[HTML]{EE3311}}
LineStyle=solid
LineWidth=0.06
Path=/afs/cern.ch/work/s/sthenkel/work/MCGenerators/RIVET/RivetAnalyses/routines/MC_TTbar_TruthSel/Output_test.yoda/MC_TTbar_TruthSel/elec_pT
ScaledBy=1
Title=TestPlot
XLabel=
YLabel=
# xlow	 xhigh	 val	 errminus	 errplus
0.000000e+00	5.000000e+01	2.020000e+00	2.009975e-01	2.009975e-01
5.000000e+01	1.000000e+02	1.340000e+00	1.637071e-01	1.637071e-01
1.000000e+02	1.500000e+02	2.600000e-01	7.211103e-02	7.211103e-02
1.500000e+02	2.000000e+02	6.000000e-02	3.464102e-02	3.464102e-02
2.000000e+02	2.500000e+02	2.000000e-02	2.000000e-02	2.000000e-02
2.500000e+02	3.500000e+02	1.000000e-02	1.000000e-02	1.000000e-02
3.500000e+02	8.000000e+02	0.000000e+00	0.000000e+00	0.000000e+00
8.000000e+02	1.500000e+03	0.000000e+00	0.000000e+00	0.000000e+00
# END HISTOGRAM

