# BEGIN PLOT
DrawOnly=/afs/cern.ch/work/s/sthenkel/work/MCGenerators/RIVET/RivetAnalyses/routines/MC_TTbar_TruthSel/Output_test.yoda/MC_TTbar_TruthSel/mu_eta
Title= leading mu #eta
LogY=0
RatioPlotYMax=1.17
NormalizeToSum=1
LegendXPos=0.35
XLabel=muon #eta
XMax=3.0
YLabel=bin sum.
XMin=-3.0
RatioPlotErrorBandColor=yellow
LegendYPos=0.35
Legend=1
RatioPlotYMin=0.83
# END PLOT

# BEGIN HISTOGRAM /afs/cern.ch/work/s/sthenkel/work/MCGenerators/RIVET/RivetAnalyses/routines/MC_TTbar_TruthSel/Output_test.yoda/MC_TTbar_TruthSel/mu_eta
LineColor={[HTML]{EE3311}}
LineStyle=solid
LineWidth=0.06
Path=/afs/cern.ch/work/s/sthenkel/work/MCGenerators/RIVET/RivetAnalyses/routines/MC_TTbar_TruthSel/Output_test.yoda/MC_TTbar_TruthSel/mu_eta
ScaledBy=1
Title=TestPlot
XLabel=
YLabel=
# xlow	 xhigh	 val	 errminus	 errplus
-4.500000e+00	-3.500000e+00	0.000000e+00	0.000000e+00	0.000000e+00
-3.500000e+00	-2.500000e+00	0.000000e+00	0.000000e+00	0.000000e+00
-2.500000e+00	-1.750000e+00	9.333333e+00	3.527668e+00	3.527668e+00
-1.750000e+00	-1.250000e+00	2.400000e+01	6.928203e+00	6.928203e+00
-1.250000e+00	-7.500000e-01	3.400000e+01	8.246211e+00	8.246211e+00
-7.500000e-01	-2.500000e-01	6.200000e+01	1.113553e+01	1.113553e+01
-2.500000e-01	2.500000e-01	5.800000e+01	1.077033e+01	1.077033e+01
2.500000e-01	7.500000e-01	7.000000e+01	1.183216e+01	1.183216e+01
7.500000e-01	1.250000e+00	2.600000e+01	7.211103e+00	7.211103e+00
1.250000e+00	1.750000e+00	4.800000e+01	9.797959e+00	9.797959e+00
1.750000e+00	2.500000e+00	2.400000e+01	5.656854e+00	5.656854e+00
2.500000e+00	3.500000e+00	0.000000e+00	0.000000e+00	0.000000e+00
3.500000e+00	4.500000e+00	0.000000e+00	0.000000e+00	0.000000e+00
# END HISTOGRAM

